*** Life<ConwayCell> 5x5 ***

Generation = 0, Population = 9.
.****
.*...
.....
.*..*
**...

Generation = 1, Population = 9.
.***.
.*.*.
.....
**...
**...

Generation = 2, Population = 11.
.*.*.
.*.*.
***..
**...
**...

Generation = 3, Population = 3.
.....
...*.
.....
.....
**...

Generation = 4, Population = 0.
.....
.....
.....
.....
.....

Generation = 5, Population = 0.
.....
.....
.....
.....
.....

*** Life<ConwayCell> 5x5 ***

Generation = 0, Population = 12.
.*..*
..**.
.**.*
*.*.*
..*.*

Generation = 2, Population = 4.
...*.
....*
....*
...*.
.....

Generation = 4, Population = 4.
.....
...**
...**
.....
.....

Generation = 6, Population = 4.
.....
...**
...**
.....
.....

Generation = 8, Population = 4.
.....
...**
...**
.....
.....

Generation = 10, Population = 4.
.....
...**
...**
.....
.....

*** Life<ConwayCell> 5x5 ***

Generation = 0, Population = 13.
***.*
*.*..
.**.*
..**.
.**..

Generation = 4, Population = 0.
.....
.....
.....
.....
.....

Generation = 8, Population = 0.
.....
.....
.....
.....
.....

Generation = 12, Population = 0.
.....
.....
.....
.....
.....

Generation = 16, Population = 0.
.....
.....
.....
.....
.....

Generation = 20, Population = 0.
.....
.....
.....
.....
.....

*** Life<ConwayCell> 10x10 ***

Generation = 0, Population = 18.
*.*.......
.*.*......
.......*..
........*.
........*.
**..**....
..........
.*.....**.
.*..*.....
..*......*

Generation = 1, Population = 11.
.**.......
.**.......
..........
.......**.
..........
..........
**........
..........
.**.....*.
..........

Generation = 2, Population = 6.
.**.......
.**.......
..........
..........
..........
..........
..........
*.*.......
..........
..........

Generation = 3, Population = 4.
.**.......
.**.......
..........
..........
..........
..........
..........
..........
..........
..........

Generation = 4, Population = 4.
.**.......
.**.......
..........
..........
..........
..........
..........
..........
..........
..........

Generation = 5, Population = 4.
.**.......
.**.......
..........
..........
..........
..........
..........
..........
..........
..........

*** Life<ConwayCell> 10x10 ***

Generation = 0, Population = 35.
.....*.*.*
...*......
...**.*..*
*.**..*.**
*.*....**.
..*..*..*.
*.......*.
*..**..*..
..*..*....
***...*.**

Generation = 2, Population = 34.
..........
.....**.**
.........*
....*....*
...*..****
..**....**
...**..***
**........
*...****..
.***.***..

Generation = 4, Population = 29.
..........
........**
.........*
...**.*...
..**..***.
.*...****.
**.**.....
**......*.
*...*.....
.****.....

Generation = 6, Population = 28.
..........
........**
...***....
..*.**..*.
......*.**
.***.**.**
.**...**..
..........
.....*....
.****.....

Generation = 8, Population = 25.
..........
....*.....
....***..*
.....**..*
..*..**..*
**...*..*.
.....*.**.
......*...
..*.**....
..*.*.....

Generation = 10, Population = 19.
..........
.....*....
.....*.**.
.....**..*
....***...
....**....
.........*
....*..**.
...*......
....**....

*** Life<ConwayCell> 10x10 ***

Generation = 0, Population = 59.
********.*
*.***.*..*
*......***
*.*..*.**.
...*.*.**.
..**.****.
.**.*****.
...*.*.***
..*.**..**
******..**

Generation = 4, Population = 18.
......***.
....**.**.
...*.*....
.***.*....
..**......
.*........
.*........
.*........
..........
..........

Generation = 8, Population = 12.
.....***..
.....*.*..
...*......
..........
..**......
..........
*.*.......
.*........
.*........
..........

Generation = 12, Population = 15.
..........
...*......
....*.....
..***.....
.**.......
*..*......
*..*......
...*......
*.*.......
.*........

Generation = 16, Population = 19.
..........
..*.......
..***.....
.*...*....
**.*.*....
**..*.....
..........
...**.....
.*..*.....
.*.*......

Generation = 20, Population = 28.
..*.......
.****.....
*..**.....
**..**....
*.*..**...
*.*...**..
.****.*...
....***...
..........
..........

*** Life<ConwayCell> 20x20 ***

Generation = 0, Population = 38.
......*.............
............*.......
...........*.*....*.
***...*.............
........*...........
...*.........*......
**..........*......*
...................*
...........*........
....................
......*........*....
.*......*.......*...
.............*.*....
..........*.......*.
..............*.....
*.........*..*....*.
....................
....*....*.......*..
.........*.*........
..................*.

Generation = 1, Population = 12.
....................
............*.......
.*..........*.......
.*..................
.**.................
....................
....................
....................
....................
....................
....................
..............***...
....................
..............*.....
....................
....................
....................
..........*.........
..........*.........
....................

Generation = 2, Population = 7.
....................
....................
....................
**..................
.**.................
....................
....................
....................
....................
....................
...............*....
...............*....
..............*.....
....................
....................
....................
....................
....................
....................
....................

Generation = 3, Population = 8.
....................
....................
....................
***.................
***.................
....................
....................
....................
....................
....................
....................
..............**....
....................
....................
....................
....................
....................
....................
....................
....................

Generation = 4, Population = 6.
....................
....................
.*..................
*.*.................
*.*.................
.*..................
....................
....................
....................
....................
....................
....................
....................
....................
....................
....................
....................
....................
....................
....................

Generation = 5, Population = 6.
....................
....................
.*..................
*.*.................
*.*.................
.*..................
....................
....................
....................
....................
....................
....................
....................
....................
....................
....................
....................
....................
....................
....................

*** Life<ConwayCell> 20x20 ***

Generation = 0, Population = 73.
*.........*.........
...*........*.....**
*...*..*............
.....**.*...**......
.....*....*..*......
....*.*.*.**...*..*.
..*.*.*.............
...*........*...*...
...*............**..
......*...*.........
........*......*....
.*...***.........*..
....*....*..........
*...........**.**...
....................
...*......*.*.*...*.
........*...*.....*.
*...**.**..........*
...**......**...*...
...*..*...*....*..*.

Generation = 2, Population = 68.
....................
.....**.............
....*..*....**......
...*...*...*........
........***..**.....
...**.****.**.......
..*...***..*........
...**...........**..
...*...........*....
................**..
.....*.*............
....*..*............
.....*..............
...............*....
...........****.....
........*..*.*......
...*****.*.*.*......
...*.*...*.*........
..*...***.**........
...**...............

Generation = 4, Population = 72.
....................
....***.............
....**.**.**........
...*...**.****......
...**.**.....**.....
..**..**.....*......
..*...**..*..*......
..*.**....**........
..*.*..........**...
....................
.....*..............
.....*..............
.............*......
............*.*.....
.....***...*..*.....
....*...*..*........
..**.....*.**.......
..**.......**.......
..*.*.**.*.*........
.......*.**.........

Generation = 6, Population = 68.
.....**.............
....****............
...**..*.*..........
...*.....***.**.....
....**.....*..*.....
.**.*.....*..*......
....*.**.**..*......
.**...*...*.*.......
...**.*.............
....................
....................
....................
.............*......
.....***...*..*.....
........*..*.*......
...*....*..*........
..*...*.*...........
.**..*.**...........
.....**..*.*........
......**.***........

Generation = 8, Population = 75.
.......**...........
...**.**............
..**..**.**.**......
..**.**..*.****.....
......*........*....
...**.**......*.....
...*..**......*.....
..*.*.****.**.......
..****....*.........
....................
....................
....................
......**............
.....**.............
......*.*.****......
..*........*........
.*.*......*.........
.*.*****............
....**..............
.....*****..........

Generation = 10, Population = 81.
...******...........
...*****.**.........
....................
..***...**.*.***....
..*..*.......*.*....
..**.........***....
..*......**...*.....
.**..**....**.......
..*.****...*........
...**.*****.........
....................
......*.............
.....**.............
....*.....*.*.......
.....**...*.*.......
..*.*..*..**........
...****.............
...*.**.............
...*................
....****............

*** Life<ConwayCell> 20x20 ***

Generation = 0, Population = 134.
***..**.*....*...*..
.......*...*...*..*.
.*....*......*.*...*
........**..*.*..*..
.*..*..**..*......**
.*...*.**.***..*...*
..*..**..*.**..*...*
*.**.**..**..**.....
...*..*...*.*....*.*
**.*...*..***....*.*
..*..**.......*..*..
**.....*..........*.
*.*..**.*.***.**...*
.....*.........***.*
.**.*******.*.*....*
......*.*........*..
.*.*......*.*..*.*.*
.....**..*.*..*..*.*
.*.*.**...*....*.*..
...*.............*.*

Generation = 4, Population = 116.
...............**...
........**.*.*.****.
......*...*.*.....*.
.....***..*.*...**..
....*..***..*..***..
...***.........*..*.
.....***............
*.....*.*...*.......
*..*.*....***.......
*.........****......
..........*..*.*....
.*...*..*...*.**....
.***....****.*....*.
..**....**.*.....*..
...*...*.*.*........
...*..*****.****.**.
..*....***.....**...
..*..*...*..****....
..**.*...***...***..
....*............*..

Generation = 8, Population = 86.
.........*....*.....
.....*..*......*....
....*.*.............
...*..***...*.**....
....**.**...**.**...
........*...*..**...
.........**.........
....................
....................
........*....**.....
..*..........*.*....
.*.*...........*....
.*...............*..
...**...*....*....*.
.........**...**.**.
........**.*...*....
..........*..**.***.
.....**..*..*......*
..****...****...*.*.
..***....***.*****..

Generation = 12, Population = 65.
.....*..............
....*.*......*......
...*...**..**.*.....
.....*.*...**.*.....
.......*..***.......
.......*............
........*...**.*....
.............**.....
....................
.............**.....
.............*..*...
.............*...*..
....................
................*...
.............***.*..
........*.**........
....*****........***
...*........*....*.*
..*...**.***....**..
...**..*.........**.

Generation = 16, Population = 67.
....................
......**.*...*......
......*....**.*.....
.............***....
.......*....*.*.....
.......*..*.***.....
.......**....**.....
.............**.....
...........**.*.....
...........*..**....
............*.**....
.............***....
.............*.*....
.............*......
.............*...**.
..........**..*...*.
..........**...**.*.
...**.....**...**...
..*....*.......**.*.
...*...*........**..

Generation = 20, Population = 62.
....................
......**............
......**...*.**.....
......**..*..*......
.......**...*.......
......*.****........
......*.**....***...
.......*............
...........*........
..........*.........
.........***........
.........**...*.....
..........**..*.*...
................***.
.................*.*
.............*.**..*
..........*...*.***.
..........**......*.
...........****..*..
..............*.*...

